%YAML 1.1
%TAG !u! tag:unity3d.com,2011:
--- !u!1 &8107335056830636596
GameObject:
  m_ObjectHideFlags: 0
  m_CorrespondingSourceObject: {fileID: 0}
  m_PrefabInstance: {fileID: 0}
  m_PrefabAsset: {fileID: 0}
  serializedVersion: 6
  m_Component:
  - component: {fileID: 8107335056830636598}
  - component: {fileID: 8107335056830636599}
  - component: {fileID: 8107335056830636585}
  m_Layer: 0
  m_Name: GameController
  m_TagString: Untagged
  m_Icon: {fileID: 0}
  m_NavMeshLayer: 0
  m_StaticEditorFlags: 0
  m_IsActive: 1
--- !u!4 &8107335056830636598
Transform:
  m_ObjectHideFlags: 0
  m_CorrespondingSourceObject: {fileID: 0}
  m_PrefabInstance: {fileID: 0}
  m_PrefabAsset: {fileID: 0}
  m_GameObject: {fileID: 8107335056830636596}
  m_LocalRotation: {x: 0, y: 0, z: 0, w: 1}
  m_LocalPosition: {x: 0, y: 0, z: 0}
  m_LocalScale: {x: 1, y: 1, z: 1}
  m_Children: []
  m_Father: {fileID: 0}
  m_RootOrder: 0
  m_LocalEulerAnglesHint: {x: 0, y: 0, z: 0}
--- !u!114 &8107335056830636599
MonoBehaviour:
  m_ObjectHideFlags: 0
  m_CorrespondingSourceObject: {fileID: 0}
  m_PrefabInstance: {fileID: 0}
  m_PrefabAsset: {fileID: 0}
  m_GameObject: {fileID: 8107335056830636596}
  m_Enabled: 1
  m_EditorHideFlags: 0
  m_Script: {fileID: 11500000, guid: 2076be8508451524384dacc40ac7b441, type: 3}
  m_Name: 
  m_EditorClassIdentifier: 
  inventory:
    itemList: []
  standingPoints: {fileID: 0}
  playerPrefab: {fileID: 2841981603096225603, guid: ab0ceb3a441620347b91b8452de93923,
    type: 3}
  scriptables:
  - {fileID: 11400000, guid: fa7ef9e8e4a9c1a46b1f953507675141, type: 2}
  - {fileID: 11400000, guid: d3ab696dba592ea4b9e0e410277ff496, type: 2}
  - {fileID: 11400000, guid: 05d8ee857486e7c40a87910f31b9c14f, type: 2}
  - {fileID: 11400000, guid: ceecc2e7b9e2ca84e99e96d51ece630a, type: 2}
  - {fileID: 11400000, guid: 4060fb8ac00658d4fa7919b20f98f4cf, type: 2}
  - {fileID: 11400000, guid: cd32ed60419c3724983978b6c83905f9, type: 2}
  - {fileID: 11400000, guid: 20f9b3b64791d93489cc8a77370bd3f8, type: 2}
  - {fileID: 11400000, guid: d5d2b56254698e747b19a99b92f6e977, type: 2}
  - {fileID: 11400000, guid: 35fc56a60e42c9d4096fb2d6b85d105f, type: 2}
  - {fileID: 11400000, guid: 1560bf016e4f1f842b5a987d7083f695, type: 2}
  playerLayerMask:
    serializedVersion: 2
    m_Bits: 256
  enemyLayerMask:
    serializedVersion: 2
    m_Bits: 2048
  money: 5000
  battleFarmMoney: 0
  inventoryIsOpen: 0
  countSoldiers: 0
  enemyCount: 0
--- !u!114 &8107335056830636585
MonoBehaviour:
  m_ObjectHideFlags: 0
  m_CorrespondingSourceObject: {fileID: 0}
  m_PrefabInstance: {fileID: 0}
  m_PrefabAsset: {fileID: 0}
  m_GameObject: {fileID: 8107335056830636596}
  m_Enabled: 1
  m_EditorHideFlags: 0
  m_Script: {fileID: 11500000, guid: d812aa10e11d70045b46318fb63f823a, type: 3}
  m_Name: 
  m_EditorClassIdentifier: 
  playerLayerMask:
    serializedVersion: 2
    m_Bits: 256
  groundLayerMask:
    serializedVersion: 2
    m_Bits: 512
  pointLayerMask:
    serializedVersion: 2
    m_Bits: 1024
